main value
mod for dev pin tag
mod for preprod pin tag
mod for prod pin tag
i from central on main @ Sun Jan 22 10:24:58 AM EST 2023
from fabianlee/gli1-fork fork on main @ Sun 22 Jan 2023 10:38:42 AM EST
from central on main @ Sun Jan 22 10:39:51 AM EST 2023
i from central on main @ Sun Jan 22 10:56:08 AM EST 2023
from central on main @ Sun Jan 22 04:41:33 PM EST 2023
